<svg width="16" height="17" viewBox="0 0 16 17" fill="none" xmlns="http://www.w3.org/2000/svg">
<path fill-rule="evenodd" clip-rule="evenodd" d="M15.1274 0.927135C14.5648 0.329311 13.8166 6.90523e-05 13.0208 6.90523e-05L2.97918 0C1.33644 9.97423e-05 -7.22113e-06 1.4201 2.88845e-05 3.16539L0 13.8347C2.88845e-05 15.58 1.3365 17 2.97922 17H13.0208C14.6636 17 16 15.58 16 13.8347V3.16543C16 2.31991 15.6901 1.525 15.1274 0.927143V0.927135ZM15.0625 13.8346C15.0625 15.0308 14.1466 16.0039 13.0208 16.0039H2.9792C1.85342 16.0039 0.937516 15.0308 0.937487 13.8346L0.937516 3.16535C0.937487 1.96928 1.85339 0.99616 2.9792 0.996099L13.0208 0.996168C13.5662 0.996168 14.0789 1.22178 14.4645 1.63148C14.8501 2.04121 15.0625 2.58597 15.0625 3.16543V13.8346Z" fill="#21CE99"/>
<path fill-rule="evenodd" clip-rule="evenodd" d="M11.6405 6.00432H11.3568V4.91032C11.3568 4.0725 10.6752 3.39087 9.83739 3.39087H6.10966C5.27183 3.39087 4.5902 4.0725 4.5902 4.91032V6.00432H4.30657C3.46874 6.00432 2.78711 6.68595 2.78711 7.52378V9.9549C2.78711 10.7927 3.46874 11.4743 4.30657 11.4743H4.5902V12.852C4.5902 13.3547 4.99918 13.7637 5.50188 13.7637H10.4452C10.9479 13.7637 11.3568 13.3547 11.3568 12.852V11.4743H11.6405C12.4783 11.4743 13.1599 10.7927 13.1599 9.9549V7.52378C13.1599 6.68595 12.4783 6.00432 11.6405 6.00432ZM5.19811 4.91038C5.19811 4.40769 5.60709 3.99872 6.10979 3.99872H9.83752C10.3402 3.99872 10.7492 4.40769 10.7492 4.91038V6.00439H5.19811V4.91038ZM10.7492 12.8521C10.7492 13.0197 10.6129 13.156 10.4453 13.156H5.50201C5.33444 13.156 5.19811 13.0197 5.19811 12.8521V9.85376H10.7492V12.8521ZM12.5517 9.95478C12.5517 10.4575 12.1427 10.8665 11.64 10.8665H11.3564V9.85349H11.5387C11.7066 9.85349 11.8426 9.71742 11.8426 9.54959C11.8426 9.38177 11.7066 9.2457 11.5387 9.2457H4.40742C4.23959 9.2457 4.10353 9.38176 4.10353 9.54959C4.10353 9.71742 4.23959 9.85349 4.40742 9.85349H4.58976V10.8665H4.30612C3.80342 10.8665 3.39445 10.4575 3.39445 9.95478V7.52366C3.39445 7.02097 3.80342 6.612 4.30612 6.612H11.64C12.1427 6.612 12.5517 7.02097 12.5517 7.52366V9.95478Z" fill="#21CE99"/>
<path d="M9.59094 10H7.40911C7.18317 10 7 10.2238 7 10.4999C7 10.7761 7.18316 11 7.40911 11H9.59094C9.81685 11 10 10.7761 10 10.4999C10 10.2239 9.81685 10 9.59094 10Z" fill="#21CE99"/>
<path d="M9.59094 12H7.40911C7.18317 12 7 12.2239 7 12.5C7 12.7761 7.18316 13 7.40911 13H9.59094C9.81685 13 10 12.7761 10 12.5C10 12.2239 9.81685 12 9.59094 12Z" fill="#21CE99"/>
<path d="M4.80769 7H4.19231C4.0861 7 4 7.22383 4 7.5C4 7.77612 4.0861 8 4.19231 8H4.80769C4.9139 8 5 7.77613 5 7.5C5 7.22384 4.9139 7 4.80769 7Z" fill="#21CE99"/>
</svg>
